chess
5
1 a8 1
1 c8 3
1 d8 4
1 e8 5
1 f8 3
1 g8 2
1 h8 1
1 a7 0
1 b7 0
1 c7 0
1 d7 0
1 f7 0
1 g7 0
1 h7 0
1 c6 2
1 e5 0
0 g5 2
0 e4 0
0 a2 0
0 b2 0
0 c2 0
0 d2 0
0 f2 0
0 g2 0
0 h2 0
0 a1 1
0 b1 2
0 c1 3
0 d1 4
0 e1 5
0 f1 3
0 h1 1
