1. Start a new game
2. Load a saved game
White turn 1:
White turn 1:
    A   B   C   D   E   F   G   H 
8 [45m[30m ♖  [41m[30m ♘  [45m[30m ♗  [41m[30m ♕  [45m[30m ♔  [41m[30m ♗  [45m[30m ♘  [41m[30m ♖  [0m 8
7 [41m[30m ♙  [45m[30m ♙  [41m[30m ♙  [45m[30m ♙  [41m[30m ♙  [45m[30m ♙  [41m[30m ♙  [45m[30m ♙  [0m 7
6 [45m    [41m    [45m    [41m    [45m    [41m    [45m    [41m    [0m 6
5 [41m    [45m    [41m    [45m    [41m    [45m    [41m    [45m    [0m 5
4 [45m    [41m    [45m    [41m    [45m[37;1m ♙  [41m    [45m    [41m    [0m 4
3 [41m    [45m    [41m    [45m    [41m    [45m    [41m    [45m    [0m 3
2 [45m[37;1m ♙  [41m[37;1m ♙  [45m[37;1m ♙  [41m[37;1m ♙  [45m    [41m[37;1m ♙  [45m[37;1m ♙  [41m[37;1m ♙  [0m 2
1 [41m[37;1m ♖  [45m[37;1m ♘  [41m[37;1m ♗  [45m[37;1m ♕  [41m[37;1m ♔  [45m[37;1m ♗  [41m[37;1m ♘  [45m[37;1m ♖  [0m 1
    A   B   C   D   E   F   G   H 
Black turn 2:
Error: you do not have a piece there.
    A   B   C   D   E   F   G   H 
8 [45m[30m ♖  [41m[30m ♘  [45m[30m ♗  [41m[30m ♕  [45m[30m ♔  [41m[30m ♗  [45m[30m ♘  [41m[30m ♖  [0m 8
7 [41m[30m ♙  [45m[30m ♙  [41m[30m ♙  [45m[30m ♙  [41m[30m ♙  [45m[30m ♙  [41m[30m ♙  [45m[30m ♙  [0m 7
6 [45m    [41m    [45m    [41m    [45m    [41m    [45m    [41m    [0m 6
5 [41m    [45m    [41m    [45m    [41m    [45m    [41m    [45m    [0m 5
4 [45m    [41m    [45m    [41m    [45m[37;1m ♙  [41m    [45m    [41m    [0m 4
3 [41m    [45m    [41m    [45m    [41m    [45m    [41m    [45m    [0m 3
2 [45m[37;1m ♙  [41m[37;1m ♙  [45m[37;1m ♙  [41m[37;1m ♙  [45m    [41m[37;1m ♙  [45m[37;1m ♙  [41m[37;1m ♙  [0m 2
1 [41m[37;1m ♖  [45m[37;1m ♘  [41m[37;1m ♗  [45m[37;1m ♕  [41m[37;1m ♔  [45m[37;1m ♗  [41m[37;1m ♘  [45m[37;1m ♖  [0m 1
    A   B   C   D   E   F   G   H 
Black turn 2:
    A   B   C   D   E   F   G   H 
8 [45m[30m ♖  [41m[30m ♘  [45m[30m ♗  [41m[30m ♕  [45m[30m ♔  [41m[30m ♗  [45m[30m ♘  [41m[30m ♖  [0m 8
7 [41m[30m ♙  [45m[30m ♙  [41m[30m ♙  [45m[30m ♙  [41m[30m ♙  [45m[30m ♙  [41m[30m ♙  [45m[30m ♙  [0m 7
6 [45m    [41m    [45m    [41m    [45m    [41m    [45m    [41m    [0m 6
5 [41m    [45m    [41m    [45m    [41m    [45m    [41m    [45m    [0m 5
4 [45m    [41m    [45m    [41m    [45m[37;1m ♙  [41m    [45m    [41m    [0m 4
3 [41m    [45m    [41m    [45m    [41m    [45m    [41m    [45m    [0m 3
2 [45m[37;1m ♙  [41m[37;1m ♙  [45m[37;1m ♙  [41m[37;1m ♙  [45m    [41m[37;1m ♙  [45m[37;1m ♙  [41m[37;1m ♙  [0m 2
1 [41m[37;1m ♖  [45m[37;1m ♘  [41m[37;1m ♗  [45m[37;1m ♕  [41m[37;1m ♔  [45m[37;1m ♗  [41m[37;1m ♘  [45m[37;1m ♖  [0m 1
    A   B   C   D   E   F   G   H 
Black turn 2:
    A   B   C   D   E   F   G   H 
8 [45m[30m ♖  [41m[30m ♘  [45m[30m ♗  [41m[30m ♕  [45m[30m ♔  [41m[30m ♗  [45m[30m ♘  [41m[30m ♖  [0m 8
7 [41m[30m ♙  [45m[30m ♙  [41m[30m ♙  [45m[30m ♙  [41m[30m ♙  [45m[30m ♙  [41m[30m ♙  [45m[30m ♙  [0m 7
6 [45m    [41m    [45m    [41m    [45m    [41m    [45m    [41m    [0m 6
5 [41m    [45m    [41m    [45m    [41m    [45m    [41m    [45m    [0m 5
4 [45m    [41m    [45m    [41m    [45m[37;1m ♙  [41m    [45m    [41m    [0m 4
3 [41m    [45m    [41m    [45m    [41m    [45m    [41m    [45m    [0m 3
2 [45m[37;1m ♙  [41m[37;1m ♙  [45m[37;1m ♙  [41m[37;1m ♙  [45m    [41m[37;1m ♙  [45m[37;1m ♙  [41m[37;1m ♙  [0m 2
1 [41m[37;1m ♖  [45m[37;1m ♘  [41m[37;1m ♗  [45m[37;1m ♕  [41m[37;1m ♔  [45m[37;1m ♗  [41m[37;1m ♘  [45m[37;1m ♖  [0m 1
    A   B   C   D   E   F   G   H 
Black turn 2:
    A   B   C   D   E   F   G   H 
8 [45m[30m ♖  [41m[30m ♘  [45m[30m ♗  [41m[30m ♕  [45m[30m ♔  [41m[30m ♗  [45m[30m ♘  [41m[30m ♖  [0m 8
7 [41m[30m ♙  [45m[30m ♙  [41m[30m ♙  [45m[30m ♙  [41m[30m ♙  [45m[30m ♙  [41m[30m ♙  [45m[30m ♙  [0m 7
6 [45m    [41m    [45m    [41m    [45m    [41m    [45m    [41m    [0m 6
5 [41m    [45m    [41m    [45m    [41m    [45m    [41m    [45m    [0m 5
4 [45m    [41m    [45m    [41m    [45m[37;1m ♙  [41m    [45m    [41m    [0m 4
3 [41m    [45m    [41m    [45m    [41m    [45m    [41m    [45m    [0m 3
2 [45m[37;1m ♙  [41m[37;1m ♙  [45m[37;1m ♙  [41m[37;1m ♙  [45m    [41m[37;1m ♙  [45m[37;1m ♙  [41m[37;1m ♙  [0m 2
1 [41m[37;1m ♖  [45m[37;1m ♘  [41m[37;1m ♗  [45m[37;1m ♕  [41m[37;1m ♔  [45m[37;1m ♗  [41m[37;1m ♘  [45m[37;1m ♖  [0m 1
    A   B   C   D   E   F   G   H 
Black turn 2:
    A   B   C   D   E   F   G   H 
8 [45m[30m ♖  [41m[30m ♘  [45m[30m ♗  [41m[30m ♕  [45m[30m ♔  [41m[30m ♗  [45m[30m ♘  [41m[30m ♖  [0m 8
7 [41m[30m ♙  [45m[30m ♙  [41m[30m ♙  [45m[30m ♙  [41m[30m ♙  [45m[30m ♙  [41m[30m ♙  [45m[30m ♙  [0m 7
6 [45m    [41m    [45m    [41m    [45m    [41m    [45m    [41m    [0m 6
5 [41m    [45m    [41m    [45m    [41m    [45m    [41m    [45m    [0m 5
4 [45m    [41m    [45m    [41m    [45m[37;1m ♙  [41m    [45m    [41m    [0m 4
3 [41m    [45m    [41m    [45m    [41m    [45m    [41m    [45m    [0m 3
2 [45m[37;1m ♙  [41m[37;1m ♙  [45m[37;1m ♙  [41m[37;1m ♙  [45m    [41m[37;1m ♙  [45m[37;1m ♙  [41m[37;1m ♙  [0m 2
1 [41m[37;1m ♖  [45m[37;1m ♘  [41m[37;1m ♗  [45m[37;1m ♕  [41m[37;1m ♔  [45m[37;1m ♗  [41m[37;1m ♘  [45m[37;1m ♖  [0m 1
    A   B   C   D   E   F   G   H 
Black turn 2:
Error: you do not have a piece there.
    A   B   C   D   E   F   G   H 
8 [45m[30m ♖  [41m[30m ♘  [45m[30m ♗  [41m[30m ♕  [45m[30m ♔  [41m[30m ♗  [45m[30m ♘  [41m[30m ♖  [0m 8
7 [41m[30m ♙  [45m[30m ♙  [41m[30m ♙  [45m[30m ♙  [41m[30m ♙  [45m[30m ♙  [41m[30m ♙  [45m[30m ♙  [0m 7
6 [45m    [41m    [45m    [41m    [45m    [41m    [45m    [41m    [0m 6
5 [41m    [45m    [41m    [45m    [41m    [45m    [41m    [45m    [0m 5
4 [45m    [41m    [45m    [41m    [45m[37;1m ♙  [41m    [45m    [41m    [0m 4
3 [41m    [45m    [41m    [45m    [41m    [45m    [41m    [45m    [0m 3
2 [45m[37;1m ♙  [41m[37;1m ♙  [45m[37;1m ♙  [41m[37;1m ♙  [45m    [41m[37;1m ♙  [45m[37;1m ♙  [41m[37;1m ♙  [0m 2
1 [41m[37;1m ♖  [45m[37;1m ♘  [41m[37;1m ♗  [45m[37;1m ♕  [41m[37;1m ♔  [45m[37;1m ♗  [41m[37;1m ♘  [45m[37;1m ♖  [0m 1
    A   B   C   D   E   F   G   H 
Black turn 2:
    A   B   C   D   E   F   G   H 
8 [45m[30m ♖  [41m[30m ♘  [45m[30m ♗  [41m[30m ♕  [45m[30m ♔  [41m[30m ♗  [45m[30m ♘  [41m[30m ♖  [0m 8
7 [41m[30m ♙  [45m[30m ♙  [41m[30m ♙  [45m[30m ♙  [41m[30m ♙  [45m[30m ♙  [41m[30m ♙  [45m[30m ♙  [0m 7
6 [45m    [41m    [45m    [41m    [45m    [41m    [45m    [41m    [0m 6
5 [41m    [45m    [41m    [45m    [41m    [45m    [41m    [45m    [0m 5
4 [45m    [41m    [45m    [41m    [45m[37;1m ♙  [41m    [45m    [41m    [0m 4
3 [41m    [45m    [41m    [45m    [41m    [45m    [41m    [45m    [0m 3
2 [45m[37;1m ♙  [41m[37;1m ♙  [45m[37;1m ♙  [41m[37;1m ♙  [45m    [41m[37;1m ♙  [45m[37;1m ♙  [41m[37;1m ♙  [0m 2
1 [41m[37;1m ♖  [45m[37;1m ♘  [41m[37;1m ♗  [45m[37;1m ♕  [41m[37;1m ♔  [45m[37;1m ♗  [41m[37;1m ♘  [45m[37;1m ♖  [0m 1
    A   B   C   D   E   F   G   H 
Black turn 2:
    A   B   C   D   E   F   G   H 
8 [45m[30m ♖  [41m[30m ♘  [45m[30m ♗  [41m[30m ♕  [45m[30m ♔  [41m[30m ♗  [45m[30m ♘  [41m[30m ♖  [0m 8
7 [41m[30m ♙  [45m[30m ♙  [41m[30m ♙  [45m[30m ♙  [41m[30m ♙  [45m[30m ♙  [41m[30m ♙  [45m[30m ♙  [0m 7
6 [45m    [41m    [45m    [41m    [45m    [41m    [45m    [41m    [0m 6
5 [41m    [45m    [41m    [45m    [41m    [45m    [41m    [45m    [0m 5
4 [45m    [41m    [45m    [41m    [45m[37;1m ♙  [41m    [45m    [41m    [0m 4
3 [41m    [45m    [41m    [45m    [41m    [45m    [41m    [45m    [0m 3
2 [45m[37;1m ♙  [41m[37;1m ♙  [45m[37;1m ♙  [41m[37;1m ♙  [45m    [41m[37;1m ♙  [45m[37;1m ♙  [41m[37;1m ♙  [0m 2
1 [41m[37;1m ♖  [45m[37;1m ♘  [41m[37;1m ♗  [45m[37;1m ♕  [41m[37;1m ♔  [45m[37;1m ♗  [41m[37;1m ♘  [45m[37;1m ♖  [0m 1
    A   B   C   D   E   F   G   H 
Black turn 2:
Error: blocked by another piece.
    A   B   C   D   E   F   G   H 
8 [45m[30m ♖  [41m[30m ♘  [45m[30m ♗  [41m[30m ♕  [45m[30m ♔  [41m[30m ♗  [45m[30m ♘  [41m[30m ♖  [0m 8
7 [41m[30m ♙  [45m[30m ♙  [41m[30m ♙  [45m[30m ♙  [41m[30m ♙  [45m[30m ♙  [41m[30m ♙  [45m[30m ♙  [0m 7
6 [45m    [41m    [45m    [41m    [45m    [41m    [45m    [41m    [0m 6
5 [41m    [45m    [41m    [45m    [41m    [45m    [41m    [45m    [0m 5
4 [45m    [41m    [45m    [41m    [45m[37;1m ♙  [41m    [45m    [41m    [0m 4
3 [41m    [45m    [41m    [45m    [41m    [45m    [41m    [45m    [0m 3
2 [45m[37;1m ♙  [41m[37;1m ♙  [45m[37;1m ♙  [41m[37;1m ♙  [45m    [41m[37;1m ♙  [45m[37;1m ♙  [41m[37;1m ♙  [0m 2
1 [41m[37;1m ♖  [45m[37;1m ♘  [41m[37;1m ♗  [45m[37;1m ♕  [41m[37;1m ♔  [45m[37;1m ♗  [41m[37;1m ♘  [45m[37;1m ♖  [0m 1
    A   B   C   D   E   F   G   H 
Black turn 2:
Error: you do not have a piece there.
    A   B   C   D   E   F   G   H 
8 [45m[30m ♖  [41m[30m ♘  [45m[30m ♗  [41m[30m ♕  [45m[30m ♔  [41m[30m ♗  [45m[30m ♘  [41m[30m ♖  [0m 8
7 [41m[30m ♙  [45m[30m ♙  [41m[30m ♙  [45m[30m ♙  [41m[30m ♙  [45m[30m ♙  [41m[30m ♙  [45m[30m ♙  [0m 7
6 [45m    [41m    [45m    [41m    [45m    [41m    [45m    [41m    [0m 6
5 [41m    [45m    [41m    [45m    [41m    [45m    [41m    [45m    [0m 5
4 [45m    [41m    [45m    [41m    [45m[37;1m ♙  [41m    [45m    [41m    [0m 4
3 [41m    [45m    [41m    [45m    [41m    [45m    [41m    [45m    [0m 3
2 [45m[37;1m ♙  [41m[37;1m ♙  [45m[37;1m ♙  [41m[37;1m ♙  [45m    [41m[37;1m ♙  [45m[37;1m ♙  [41m[37;1m ♙  [0m 2
1 [41m[37;1m ♖  [45m[37;1m ♘  [41m[37;1m ♗  [45m[37;1m ♕  [41m[37;1m ♔  [45m[37;1m ♗  [41m[37;1m ♘  [45m[37;1m ♖  [0m 1
    A   B   C   D   E   F   G   H 
Black turn 2:
Error: you do not have a piece there.
    A   B   C   D   E   F   G   H 
8 [45m[30m ♖  [41m[30m ♘  [45m[30m ♗  [41m[30m ♕  [45m[30m ♔  [41m[30m ♗  [45m[30m ♘  [41m[30m ♖  [0m 8
7 [41m[30m ♙  [45m[30m ♙  [41m[30m ♙  [45m[30m ♙  [41m[30m ♙  [45m[30m ♙  [41m[30m ♙  [45m[30m ♙  [0m 7
6 [45m    [41m    [45m    [41m    [45m    [41m    [45m    [41m    [0m 6
5 [41m    [45m    [41m    [45m    [41m    [45m    [41m    [45m    [0m 5
4 [45m    [41m    [45m    [41m    [45m[37;1m ♙  [41m    [45m    [41m    [0m 4
3 [41m    [45m    [41m    [45m    [41m    [45m    [41m    [45m    [0m 3
2 [45m[37;1m ♙  [41m[37;1m ♙  [45m[37;1m ♙  [41m[37;1m ♙  [45m    [41m[37;1m ♙  [45m[37;1m ♙  [41m[37;1m ♙  [0m 2
1 [41m[37;1m ♖  [45m[37;1m ♘  [41m[37;1m ♗  [45m[37;1m ♕  [41m[37;1m ♔  [45m[37;1m ♗  [41m[37;1m ♘  [45m[37;1m ♖  [0m 1
    A   B   C   D   E   F   G   H 
Black turn 2:
    A   B   C   D   E   F   G   H 
8 [45m[30m ♖  [41m[30m ♘  [45m[30m ♗  [41m[30m ♕  [45m[30m ♔  [41m[30m ♗  [45m[30m ♘  [41m[30m ♖  [0m 8
7 [41m[30m ♙  [45m[30m ♙  [41m[30m ♙  [45m[30m ♙  [41m[30m ♙  [45m[30m ♙  [41m[30m ♙  [45m[30m ♙  [0m 7
6 [45m    [41m    [45m    [41m    [45m    [41m    [45m    [41m    [0m 6
5 [41m    [45m    [41m    [45m    [41m    [45m    [41m    [45m    [0m 5
4 [45m    [41m    [45m    [41m    [45m[37;1m ♙  [41m    [45m    [41m    [0m 4
3 [41m    [45m    [41m    [45m    [41m    [45m    [41m    [45m    [0m 3
2 [45m[37;1m ♙  [41m[37;1m ♙  [45m[37;1m ♙  [41m[37;1m ♙  [45m    [41m[37;1m ♙  [45m[37;1m ♙  [41m[37;1m ♙  [0m 2
1 [41m[37;1m ♖  [45m[37;1m ♘  [41m[37;1m ♗  [45m[37;1m ♕  [41m[37;1m ♔  [45m[37;1m ♗  [41m[37;1m ♘  [45m[37;1m ♖  [0m 1
    A   B   C   D   E   F   G   H 
Black turn 2:
Error: out of bounds.
    A   B   C   D   E   F   G   H 
8 [45m[30m ♖  [41m[30m ♘  [45m[30m ♗  [41m[30m ♕  [45m[30m ♔  [41m[30m ♗  [45m[30m ♘  [41m[30m ♖  [0m 8
7 [41m[30m ♙  [45m[30m ♙  [41m[30m ♙  [45m[30m ♙  [41m[30m ♙  [45m[30m ♙  [41m[30m ♙  [45m[30m ♙  [0m 7
6 [45m    [41m    [45m    [41m    [45m    [41m    [45m    [41m    [0m 6
5 [41m    [45m    [41m    [45m    [41m    [45m    [41m    [45m    [0m 5
4 [45m    [41m    [45m    [41m    [45m[37;1m ♙  [41m    [45m    [41m    [0m 4
3 [41m    [45m    [41m    [45m    [41m    [45m    [41m    [45m    [0m 3
2 [45m[37;1m ♙  [41m[37;1m ♙  [45m[37;1m ♙  [41m[37;1m ♙  [45m    [41m[37;1m ♙  [45m[37;1m ♙  [41m[37;1m ♙  [0m 2
1 [41m[37;1m ♖  [45m[37;1m ♘  [41m[37;1m ♗  [45m[37;1m ♕  [41m[37;1m ♔  [45m[37;1m ♗  [41m[37;1m ♘  [45m[37;1m ♖  [0m 1
    A   B   C   D   E   F   G   H 
Black turn 2:
Error: couldn't parse your move.
Black turn 2:
    A   B   C   D   E   F   G   H 
8 [45m[30m ♖  [41m[30m ♘  [45m[30m ♗  [41m[30m ♕  [45m[30m ♔  [41m[30m ♗  [45m[30m ♘  [41m[30m ♖  [0m 8
7 [41m[30m ♙  [45m[30m ♙  [41m[30m ♙  [45m[30m ♙  [41m[30m ♙  [45m[30m ♙  [41m[30m ♙  [45m[30m ♙  [0m 7
6 [45m    [41m    [45m    [41m    [45m    [41m    [45m    [41m    [0m 6
5 [41m    [45m    [41m    [45m    [41m    [45m    [41m    [45m    [0m 5
4 [45m    [41m    [45m    [41m    [45m[37;1m ♙  [41m    [45m    [41m    [0m 4
3 [41m    [45m    [41m    [45m    [41m    [45m    [41m    [45m    [0m 3
2 [45m[37;1m ♙  [41m[37;1m ♙  [45m[37;1m ♙  [41m[37;1m ♙  [45m    [41m[37;1m ♙  [45m[37;1m ♙  [41m[37;1m ♙  [0m 2
1 [41m[37;1m ♖  [45m[37;1m ♘  [41m[37;1m ♗  [45m[37;1m ♕  [41m[37;1m ♔  [45m[37;1m ♗  [41m[37;1m ♘  [45m[37;1m ♖  [0m 1
    A   B   C   D   E   F   G   H 
Black turn 2:
    A   B   C   D   E   F   G   H 
8 [45m[30m ♖  [41m[30m ♘  [45m[30m ♗  [41m[30m ♕  [45m[30m ♔  [41m[30m ♗  [45m    [41m[30m ♖  [0m 8
7 [41m[30m ♙  [45m[30m ♙  [41m[30m ♙  [45m[30m ♙  [41m[30m ♙  [45m[30m ♙  [41m[30m ♙  [45m[30m ♙  [0m 7
6 [45m    [41m    [45m    [41m    [45m    [41m    [45m    [41m[30m ♘  [0m 6
5 [41m    [45m    [41m    [45m    [41m    [45m    [41m    [45m    [0m 5
4 [45m    [41m    [45m    [41m    [45m[37;1m ♙  [41m    [45m    [41m    [0m 4
3 [41m    [45m    [41m    [45m    [41m    [45m    [41m    [45m    [0m 3
2 [45m[37;1m ♙  [41m[37;1m ♙  [45m[37;1m ♙  [41m[37;1m ♙  [45m    [41m[37;1m ♙  [45m[37;1m ♙  [41m[37;1m ♙  [0m 2
1 [41m[37;1m ♖  [45m[37;1m ♘  [41m[37;1m ♗  [45m[37;1m ♕  [41m[37;1m ♔  [45m[37;1m ♗  [41m[37;1m ♘  [45m[37;1m ♖  [0m 1
    A   B   C   D   E   F   G   H 
White turn 3:
    A   B   C   D   E   F   G   H 
8 [45m[30m ♖  [41m[30m ♘  [45m[30m ♗  [41m[30m ♕  [45m[30m ♔  [41m[30m ♗  [45m    [41m[30m ♖  [0m 8
7 [41m[30m ♙  [45m[30m ♙  [41m[30m ♙  [45m[30m ♙  [41m[30m ♙  [45m[30m ♙  [41m[30m ♙  [45m[30m ♙  [0m 7
6 [45m    [41m    [45m    [41m    [45m    [41m    [45m    [41m[30m ♘  [0m 6
5 [41m    [45m    [41m    [45m    [41m    [45m    [41m    [45m    [0m 5
4 [45m    [41m    [45m    [41m    [45m[37;1m ♙  [41m    [45m    [41m    [0m 4
3 [41m    [45m    [41m    [45m    [41m    [45m    [41m    [45m    [0m 3
2 [45m[37;1m ♙  [41m[37;1m ♙  [45m[37;1m ♙  [41m[37;1m ♙  [45m    [41m[37;1m ♙  [45m[37;1m ♙  [41m[37;1m ♙  [0m 2
1 [41m[37;1m ♖  [45m[37;1m ♘  [41m[37;1m ♗  [45m[37;1m ♕  [41m[37;1m ♔  [45m[37;1m ♗  [41m[37;1m ♘  [45m[37;1m ♖  [0m 1
    A   B   C   D   E   F   G   H 
White turn 3:
Black wins on turn 3
Game over. Goodbye!